{
  "project_info": {
    "project_number": "327001176900",
    "project_id": "power-and-water-mobile-app",
    "storage_bucket": "power-and-water-mobile-app.appspot.com"
  },
  "client": [
    {
      "client_info": {
        "mobilesdk_app_id": "1:327001176900:android:37525281f07ec276ca3511",
        "android_client_info": {
          "package_name": "com.vl.pwc"
        }
      },
      "oauth_client": [
        {
          "client_id": "327001176900-hrb78l68m8lop1k0j2aoa89ffbijtn0f.apps.googleusercontent.com",
          "client_type": 3
        }
      ],
      "api_key": [
        {
          "current_key": "AIzaSyAG42EmsXCH6LHFVcgPZ6rB1t8zMAfeMr4"
        }
      ],
      "services": {
        "appinvite_service": {
          "other_platform_oauth_client": [
            {
              "client_id": "327001176900-hrb78l68m8lop1k0j2aoa89ffbijtn0f.apps.googleusercontent.com",
              "client_type": 3
            },
            {
              "client_id": "327001176900-ocj9j3cmdrfjefgm34j0dv93nndi1a9k.apps.googleusercontent.com",
              "client_type": 2,
              "ios_info": {
                "bundle_id": "com.pwc.iphone"
              }
            }
          ]
        }
      }
    }
  ],
  "configuration_version": "1"
}