{
  "name": "sewerFault",
  "value": "Sewer fault",
  "headline": "Please describe the  sewer fault",
  "children": [
    {
      "name": "blockage",
      "value": "Blockage",
      "headline": "Where does the blockage appear to be located?",
      "children": [
        {
          "name": "powerWaterEasement",
          "value": "From a Power and Water easement",
        },
        {
          "name": "accessChamber",
          "value": "Access Chamber (manhole)"
        },
        {
          "name": "insideBuilding",
          "value": "Inside building"
        },
        {
          "name": "outsideBuilding",
          "value": "Outside building"
        },{
          "name": "bustedPipe",
          "value": "Busted pipe"
        },
        {
          "name": "overflowGully",
          "value": "Overflow gully"
        }
      ]
    },
    {
      "name": "overflow",
      "value": "Overflow",
      "headline": "Where does the blockage or overflow appear to be located?",
      "children": [
        {
          "name": "powerWaterEasement",
          "value": "From a Power and Water easement",
        },
        {
          "name": "accessChamber",
          "value": "Access Chamber (manhole)"
        },
        {
          "name": "insideBuilding",
          "value": "Inside building"
        },
        {
          "name": "outsideBuilding",
          "value": "Outside building"
        },{
          "name": "bustedPipe",
          "value": "Busted pipe"
        },
        {
          "name": "overflowGully",
          "value": "Overflow gully"
        }
      ]
    },
    {
      "name": "odour",
      "value": "Odour",
      "headline": "Where does the odour coming from?",
      "children": [
        {
          "name": "outsideBuilding",
          "value": "Outside Building"
        },
        {
          "name": "insideBuilding",
          "value": "Inside Building"
        }
      ]
    },
    {
      "name": "other",
      "value": "Other"
    }
  ]
}