{
  "name": "streetlightFault",
  "value": "Streetlight fault",
  "headline": "Streetlight location",
  "children": [
    {
      "name": "alice",
      "value": "Alice",
      "headline": "What appears to be the issue?",
      "children": [
        {
          "name": "dayOn",
          "value": "Streetlights on during the day"
        },
        {
          "name": "singleLightNotWorking",
          "value": "Single streetlight not working"
        },
        {
          "name": "bulkLightNotWorking",
          "value": "Bank of streetlights not working"
        },
        {
          "name": "other",
          "value": "Other"
        }
      ]
    },
    {
      "name": "barkly",
      "value": "Barkly",
      "headline": "What appears to be the issue?",
      "children": [
        {
          "name": "dayOn",
          "value": "Streetlights on during the day"
        },
        {
          "name": "singleLightNotWorking",
          "value": "Single streetlight not working"
        },
        {
          "name": "bulkLightNotWorking",
          "value": "Bank of streetlights not working"
        },
        {
          "name": "other",
          "value": "Other"
        }
      ]
    },
    {
      "name": "govOwned",
      "value": "Government owned road",
      "headline": "What appears to be the issue?",
      "children": [
        {
          "name": "dayOn",
          "value": "Streetlights on during the day"
        },
        {
          "name": "singleLightNotWorking",
          "value": "Single streetlight not working"
        },
        {
          "name": "bulkLightNotWorking",
          "value": "Bank of streetlights not working"
        },
        {
          "name": "other",
          "value": "Other"
        }
      ]
    },
    {
      "name": "roperGulf",
      "value": "Roper Gulf",
      "headline": "What appears to be the issue?",
      "children": [
        {
          "name": "dayOn",
          "value": "Streetlights on during the day"
        },
        {
          "name": "singleLightNotWorking",
          "value": "Single streetlight not working"
        },
        {
          "name": "bulkLightNotWorking",
          "value": "Bank of streetlights not working"
        },
        {
          "name": "other",
          "value": "Other"
        }
      ]
    },
    {
      "name": "victoriaDaly",
      "value": "Victoria / Daly",
      "headline": "What appears to be the issue?",
      "children": [
        {
          "name": "dayOn",
          "value": "Streetlights on during the day"
        },
        {
          "name": "singleLightNotWorking",
          "value": "Single streetlight not working"
        },
        {
          "name": "bulkLightNotWorking",
          "value": "Bank of streetlights not working"
        },
        {
          "name": "other",
          "value": "Other"
        }
      ]
    },
    {
      "name": "westDaly",
      "value": "West Daly",
      "headline": "What appears to be the issue?",
      "children": [
        {
          "name": "dayOn",
          "value": "Streetlights on during the day"
        },
        {
          "name": "singleLightNotWorking",
          "value": "Single streetlight not working"
        },
        {
          "name": "bulkLightNotWorking",
          "value": "Bank of streetlights not working"
        },
        {
          "name": "other",
          "value": "Other"
        }
      ]
    }
  ]
}