<?xml version="1.0" encoding="utf-8"?>
<!-- Generator: Adobe Illustrator 18.0.0, SVG Export Plug-In . SVG Version: 6.00 Build 0)  -->
<!DOCTYPE svg PUBLIC "-//W3C//DTD SVG 1.1//EN" "http://www.w3.org/Graphics/SVG/1.1/DTD/svg11.dtd">
<svg version="1.1" id="Layer_1" xmlns="http://www.w3.org/2000/svg" xmlns:xlink="http://www.w3.org/1999/xlink" x="0px" y="0px"
	 viewBox="0 0 409.4 792.2" enable-background="new 0 0 409.4 792.2" xml:space="preserve">
<path d="M333.6,203.1V267H81.1v-63.9H93h66.7H255h66.6H333.6z M207.3,412.4c-71.9,0-126.2-43.4-126.2-100.9v-23.7h252.4v23.7
	C333.6,369.1,279.3,412.4,207.3,412.4 M113.9,43.2c0-12.8,6.6-22.3,12.5-22.3c5.9,0,12.5,9.6,12.5,22.3v139h-25V43.2z M275.9,43.2
	c0-12.8,6.6-22.3,12.5-22.3c5.9,0,12.5,9.6,12.5,22.3v139h-25V43.2z M288.4,0C269.7,0,255,19,255,43.2v139h-95.3v-139
	C159.7,19,145.1,0,126.4,0C107.7,0,93,19,93,43.2v139H60.3v129.3c0,66.5,58.2,117.3,136.9,121.3V466c0,17.7-21.8,32.7-47.7,32.7h-81
	C30.7,498.7,0,527.5,0,562.9c0,35.4,30.7,64.3,68.5,64.3h272.4c26.3,0,47.7,15.9,47.7,35.6c0,19.6-21.4,35.6-47.7,35.6H219.7
	c-37.8,0-68.5,23.4-68.5,52.2v41.7h20.8v-41.7c0-17,21.8-31.3,47.6-31.3h121.2c37.8,0,68.5-25.3,68.5-56.4
	c0-31.1-30.7-56.4-68.5-56.4H68.5c-26.3,0-47.6-19.5-47.6-43.4c0-24,21.4-43.4,47.6-43.4h81c37.8,0,68.5-24,68.5-53.6v-33.1
	c78.4-4.3,136.4-54.9,136.4-121.3V182.2h-32.7v-139C321.7,19,307,0,288.4,0"/>
</svg>
