<?xml version="1.0" encoding="utf-8"?>
<!-- Generator: Adobe Illustrator 18.0.0, SVG Export Plug-In . SVG Version: 6.00 Build 0)  -->
<!DOCTYPE svg PUBLIC "-//W3C//DTD SVG 1.1//EN" "http://www.w3.org/Graphics/SVG/1.1/DTD/svg11.dtd">
<svg version="1.1" id="Layer_1" xmlns="http://www.w3.org/2000/svg" xmlns:xlink="http://www.w3.org/1999/xlink" x="0px" y="0px"
	 viewBox="0 0 198.7 177.8" enable-background="new 0 0 198.7 177.8" xml:space="preserve">
<path fill="#FFFFFF" d="M198,170L103.9,2.7c-0.4-0.8-1-1.5-1.8-1.9c-0.8-0.5-1.7-0.7-2.7-0.7c-1,0-1.8,0.2-2.7,0.7
	c-0.8,0.5-1.5,1.1-1.9,1.9L0.7,170c-0.5,0.8-0.7,1.7-0.7,2.6c0,0.9,0.2,1.8,0.7,2.6c0.5,0.8,1.1,1.4,1.9,1.8
	c0.8,0.5,1.7,0.7,2.6,0.7h188.2c1,0,1.8-0.2,2.7-0.7c0.8-0.5,1.5-1.1,1.9-1.8c0.4-0.8,0.6-1.7,0.7-2.6
	C198.7,171.7,198.5,170.9,198,170z M94.2,68c0-1.4,0.5-2.7,1.5-3.7c1-1,2.2-1.5,3.7-1.5c1.4,0,2.7,0.5,3.7,1.5c1,1,1.5,2.2,1.5,3.7
	v52.3c0,1.4-0.5,2.7-1.5,3.7c-1,1-2.2,1.5-3.7,1.5c-1.4,0-2.7-0.5-3.7-1.5c-1-1-1.5-2.2-1.5-3.7V68z M99.4,157.1
	c-5.8,0-10.6-4.7-10.6-10.6c0-5.8,4.7-10.6,10.6-10.6c5.8,0,10.6,4.7,10.6,10.6C110,152.4,105.2,157.1,99.4,157.1z"/>
</svg>
