<?xml version="1.0" encoding="utf-8"?>
<!-- Generator: Adobe Illustrator 18.0.0, SVG Export Plug-In . SVG Version: 6.00 Build 0)  -->
<!DOCTYPE svg PUBLIC "-//W3C//DTD SVG 1.1//EN" "http://www.w3.org/Graphics/SVG/1.1/DTD/svg11.dtd">
<svg version="1.1" id="Layer_1" xmlns="http://www.w3.org/2000/svg" xmlns:xlink="http://www.w3.org/1999/xlink" x="0px" y="0px"
	 viewBox="0 0 534 756.2" enable-background="new 0 0 534 756.2" xml:space="preserve">
<g>
	<path d="M258.5,282.9c34.6,15.7,77.2,15.8,112,0c30.1-13.9,65.5-13.9,95.7,0c17.3,7.9,36.7,12,56.1,12c6.5,0,11.7-5.2,11.7-11.7
		s-5.2-11.7-11.7-11.7c-16,0-32.1-3.4-46.4-9.9c-36.2-16.7-79.1-16.7-115.2,0c-28.7,13-64.2,12.9-92.6,0
		c-30.5-14.1-65.7-16.1-97.6-6.4V10.6C170.6,4.8,165.9,0,160,0H10.6C4.8,0,0,4.8,0,10.6v735c0,5.8,4.8,10.6,10.6,10.6H160
		c5.8,0,10.6-4.7,10.6-10.6V632.7c28.3-10.5,60.2-9.5,87.9,3.3c34.6,15.7,77.2,15.8,112,0c30.1-13.9,65.5-13.9,95.7,0
		c17.3,7.9,36.7,12,56.1,12c6.5,0,11.7-5.2,11.7-11.7c0-6.5-5.2-11.7-11.7-11.7c-16,0-32.1-3.4-46.4-9.9
		c-36.2-16.7-79.1-16.7-115.2,0c-28.7,13-64.2,12.9-92.6,0c-30.5-14.1-65.7-16.1-97.6-6.4v-63.8c28.3-10.5,60.2-9.5,87.9,3.3
		c34.6,15.7,77.2,15.8,112,0c30.1-13.9,65.5-13.9,95.7,0c17.3,7.9,36.7,12,56.1,12c6.5,0,11.7-5.2,11.7-11.7
		c0-6.5-5.2-11.7-11.7-11.7c-16,0-32.1-3.4-46.4-9.9c-36.2-16.7-79.1-16.7-115.2,0c-28.7,13-64.2,12.9-92.6,0
		c-30.5-14.1-65.7-16.1-97.6-6.4v-63.8c28.3-10.5,60.2-9.5,87.9,3.3c34.6,15.7,77.2,15.8,112,0c30.1-13.9,65.5-13.9,95.7,0
		c17.3,7.9,36.7,12,56.1,12c6.5,0,11.7-5.2,11.7-11.7c0-6.5-5.2-11.7-11.7-11.7c-16,0-32.1-3.4-46.4-9.9
		c-36.2-16.7-79.1-16.7-115.2,0c-28.7,13-64.2,12.9-92.6,0c-30.5-14-65.7-16.1-97.6-6.4v-63.8c28.3-10.5,60.2-9.5,87.9,3.3
		c34.5,15.7,77.2,15.8,112,0c30.1-13.9,65.5-13.9,95.7,0c17.3,7.8,36.7,12,56.1,12c6.5,0,11.7-5.2,11.7-11.7
		c0-6.5-5.2-11.7-11.7-11.7c-16.1,0-32.1-3.4-46.4-9.9c-36.1-16.7-79.1-16.7-115.2,0c-28.7,13-64.2,12.9-92.6,0
		c-30.5-14.1-65.7-16.1-97.6-6.4v-63.8C198.9,269.1,230.8,270.1,258.5,282.9z M21.2,689.8h54.2c5.8,0,10.6-4.7,10.6-10.6
		c0-5.8-4.7-10.6-10.6-10.6H21.2v-39.7h54.2c5.8,0,10.6-4.7,10.6-10.6c0-5.8-4.7-10.6-10.6-10.6H21.2V568h54.2
		c5.8,0,10.6-4.7,10.6-10.6c0-5.8-4.7-10.6-10.6-10.6H21.2v-39.7h54.2c5.8,0,10.6-4.7,10.6-10.6c0-5.8-4.7-10.6-10.6-10.6H21.2
		v-39.7h54.2c5.8,0,10.6-4.7,10.6-10.6c0-5.8-4.7-10.6-10.6-10.6H21.2v-39.7h54.2c5.8,0,10.6-4.7,10.6-10.6
		c0-5.8-4.7-10.6-10.6-10.6H21.2v-39.7h54.2c5.8,0,10.6-4.7,10.6-10.6c0-5.8-4.7-10.6-10.6-10.6H21.2v-39.7h54.2
		c5.8,0,10.6-4.7,10.6-10.6c0-5.8-4.7-10.6-10.6-10.6H21.2v-39.7h54.2c5.8,0,10.6-4.7,10.6-10.6c0-5.8-4.7-10.6-10.6-10.6H21.2
		v-39.7h54.2c5.8,0,10.6-4.7,10.6-10.6c0-5.8-4.7-10.6-10.6-10.6H21.2V81h54.2C81.2,81,86,76.2,86,70.4c0-5.8-4.7-10.6-10.6-10.6
		H21.2V21.2h128.3V735H21.2V689.8z"/>
</g>
</svg>
