<?xml version="1.0" encoding="utf-8"?>
<!-- Generator: Adobe Illustrator 18.0.0, SVG Export Plug-In . SVG Version: 6.00 Build 0)  -->
<!DOCTYPE svg PUBLIC "-//W3C//DTD SVG 1.1//EN" "http://www.w3.org/Graphics/SVG/1.1/DTD/svg11.dtd">
<svg version="1.1" id="Layer_1" xmlns="http://www.w3.org/2000/svg" xmlns:xlink="http://www.w3.org/1999/xlink" x="0px" y="0px"
	 viewBox="0 0 198.7 177.8" enable-background="new 0 0 198.7 177.8" xml:space="preserve">
<path fill="#FFFFFF" d="M170,4.1c-2.7-2.7-6-4.1-9.9-4.1H38.5c-3.8,0-7.1,1.4-9.9,4.1s-4.1,6-4.1,9.9v149.7c0,3.8,1.4,7.1,4.1,9.9
	s6,4.1,9.9,4.1h121.7c3.8,0,7.1-1.4,9.9-4.1s4.1-6,4.1-9.9V14C174.1,10.1,172.8,6.8,170,4.1z M54,29.4c0.9-0.9,2-1.4,3.3-1.4h65.5
	c1.3,0,2.4,0.5,3.3,1.4c0.9,0.9,1.4,2,1.4,3.3s-0.5,2.4-1.4,3.3c-0.9,0.9-2,1.4-3.3,1.4H57.2c-1.3,0-2.4-0.5-3.3-1.4s-1.4-2-1.4-3.3
	S53,30.3,54,29.4z M126,148.2c-0.9,0.9-2,1.4-3.3,1.4H57.2c-1.3,0-2.4-0.5-3.3-1.4s-1.4-2-1.4-3.3s0.5-2.4,1.4-3.3s2-1.4,3.3-1.4
	h65.5c1.3,0,2.4,0.5,3.3,1.4c0.9,0.9,1.4,2,1.4,3.3S126.9,147.3,126,148.2z M144.7,129.5c-0.9,0.9-2,1.4-3.3,1.4H57.2
	c-1.3,0-2.4-0.5-3.3-1.4c-0.9-0.9-1.4-2-1.4-3.3c0-1.3,0.5-2.4,1.4-3.3c0.9-0.9,2-1.4,3.3-1.4h84.2c1.3,0,2.4,0.5,3.3,1.4
	c0.9,0.9,1.4,2,1.4,3.3C146.1,127.5,145.7,128.6,144.7,129.5z M52.6,88.9c0-1.3,0.5-2.5,1.4-3.4c0.9-0.9,2-1.4,3.3-1.4H104
	c1.3,0,2.4,0.5,3.3,1.4c0.9,0.9,1.4,2,1.4,3.4c0,1.3-0.5,2.4-1.4,3.3c-0.9,0.9-2,1.4-3.3,1.4H57.2c-1.3,0-2.4-0.5-3.3-1.4
	S52.6,90.1,52.6,88.9z M144.7,73.4c-0.9,0.9-2,1.4-3.3,1.4H57.2c-1.3,0-2.4-0.5-3.3-1.4c-0.9-0.9-1.4-2-1.4-3.3
	c0-1.3,0.5-2.4,1.4-3.3c0.9-0.9,2-1.4,3.3-1.4h84.2c1.3,0,2.4,0.5,3.3,1.4c0.9,0.9,1.4,2,1.4,3.3C146.1,71.4,145.7,72.5,144.7,73.4z
	 M144.7,54.7c-0.9,0.9-2,1.4-3.3,1.4H57.2c-1.3,0-2.4-0.5-3.3-1.4c-0.9-0.9-1.4-2-1.4-3.3c0-1.3,0.5-2.4,1.4-3.3
	c0.9-0.9,2-1.4,3.3-1.4h84.2c1.3,0,2.4,0.5,3.3,1.4c0.9,0.9,1.4,2,1.4,3.3C146.1,52.7,145.7,53.8,144.7,54.7z"/>
</svg>
