<?xml version="1.0" encoding="utf-8"?>
<!-- Generator: Adobe Illustrator 18.0.0, SVG Export Plug-In . SVG Version: 6.00 Build 0)  -->
<!DOCTYPE svg PUBLIC "-//W3C//DTD SVG 1.1//EN" "http://www.w3.org/Graphics/SVG/1.1/DTD/svg11.dtd">
<svg version="1.1" id="Layer_1" xmlns="http://www.w3.org/2000/svg" xmlns:xlink="http://www.w3.org/1999/xlink" x="0px" y="0px"
	 viewBox="0 0 405.6 793.1" enable-background="new 0 0 405.6 793.1" xml:space="preserve">
<g>
	<path d="M395.4,323.4H195.9L320.7,13.9c1.3-3.1,0.9-6.7-1-9.5c-1.9-2.8-5-4.5-8.4-4.5h-137c-4.2,0-7.9,2.5-9.4,6.4L0.7,420.6
		c-1.2,3.1-0.8,6.7,1,9.4c1.9,2.8,5,4.4,8.4,4.4l187.6-0.2l-118,336.1c-1.9,5.3-1.1,10.9,2.1,15.4c3.2,4.6,8.5,7.3,14.2,7.3
		c5.7,0,10.9-2.8,14.1-7.7l293.9-446.2c2.1-3.1,2.2-7.1,0.5-10.4C402.6,325.5,399.1,323.4,395.4,323.4z M107.6,752.2l114-324.8
		c1.1-3.1,0.6-6.6-1.3-9.2c-1.9-2.7-5-4.3-8.3-4.3h0l-186.9,0.2L181.2,20.3h115.1L171.5,329.8c-1.3,3.1-0.9,6.7,1,9.5
		c1.9,2.8,5,4.5,8.4,4.5h195.7L107.6,752.2z"/>
</g>
</svg>
