<?xml version="1.0" encoding="utf-8"?>
<!-- Generator: Adobe Illustrator 18.0.0, SVG Export Plug-In . SVG Version: 6.00 Build 0)  -->
<!DOCTYPE svg PUBLIC "-//W3C//DTD SVG 1.1//EN" "http://www.w3.org/Graphics/SVG/1.1/DTD/svg11.dtd">
<svg version="1.1" id="Layer_1" xmlns="http://www.w3.org/2000/svg" xmlns:xlink="http://www.w3.org/1999/xlink" x="0px" y="0px"
	 viewBox="0 0 548.8 705.5" enable-background="new 0 0 548.8 705.5" xml:space="preserve">
<path d="M535.6,705.5H13.2c-7.3,0-13.2-5.9-13.2-13.2V13.2C0,5.9,5.9,0,13.2,0h370c7.3,0,13.2,5.9,13.2,13.2s-5.9,13.2-13.2,13.2
	H26.3v652.9h496.1V168.4c0-7.3,5.9-13.2,13.2-13.2s13.2,5.9,13.2,13.2v523.9C548.8,699.6,542.9,705.5,535.6,705.5z"/>
<path d="M535.6,177.1H390.3c-7.3,0-13.2-5.9-13.2-13.2V13.2c0-5.4,3.3-10.2,8.2-12.2c5-2,10.7-0.8,14.4,3.1l145.3,150.8
	c3.7,3.8,4.7,9.4,2.6,14.3C545.7,173.9,540.9,177.1,535.6,177.1z M403.5,150.8h101.2l-101.2-105V150.8z"/>
<path d="M101.7,644.6h17.6v-19.3c16.3-2.7,27.3-13,27.3-28.8c0-16.2-10.8-22.6-26.3-27.2c-12.1-3.5-21.1-3.6-21.1-11.2
	c0-5.4,4.8-7.8,11.9-7.8c7.5,0,19.9,2.9,30.6,9.4v-21.7c-6.5-3.3-14.8-5.6-22.5-6.5v-19h-17.6v19.3c-15.7,2.9-25.9,13-26.1,28.1
	c0,15.7,11,22.3,25.5,26.6c12.7,3.6,21.9,3.8,21.9,11.8c0,6-5.1,8.6-12.7,8.6c-7.8,0-21.1-3-32-10v22.2c6.6,3.5,15.4,5.6,23.4,6.6
	V644.6z"/>
<path d="M466.9,333.7H81.9c-8.1,0-14.6-6.5-14.6-14.6s6.5-14.6,14.6-14.6h385.1c8.1,0,14.6,6.5,14.6,14.6S475,333.7,466.9,333.7z"/>
<path d="M466.9,266.3H81.9c-8.1,0-14.6-6.5-14.6-14.6c0-8.1,6.5-14.6,14.6-14.6h385.1c8.1,0,14.6,6.5,14.6,14.6
	C481.5,259.8,475,266.3,466.9,266.3z"/>
<path d="M466.9,401.1H81.9c-8.1,0-14.6-6.5-14.6-14.6s6.5-14.6,14.6-14.6h385.1c8.1,0,14.6,6.5,14.6,14.6S475,401.1,466.9,401.1z"/>
<path d="M389.5,453.9c0-8,6.6-14.6,14.6-14.6l0,0c8,0,14.6,6.6,14.6,14.6l0,0c0,8-6.6,14.6-14.6,14.6l0,0
	C396.1,468.5,389.5,462,389.5,453.9z M326.7,453.9c0-8,6.6-14.6,14.6-14.6l0,0c8,0,14.6,6.6,14.6,14.6l0,0c0,8-6.6,14.6-14.6,14.6
	l0,0C333.3,468.5,326.7,462,326.7,453.9z M263.9,453.9c0-8,6.6-14.6,14.6-14.6l0,0c8,0,14.6,6.6,14.6,14.6l0,0
	c0,8-6.6,14.6-14.6,14.6l0,0C270.5,468.5,263.9,462,263.9,453.9z M201.1,453.9c0-8,6.6-14.6,14.6-14.6l0,0c8,0,14.6,6.6,14.6,14.6
	l0,0c0,8-6.6,14.6-14.6,14.6l0,0C207.7,468.5,201.1,462,201.1,453.9z M138.3,453.9c0-8,6.6-14.6,14.6-14.6l0,0
	c8,0,14.6,6.6,14.6,14.6l0,0c0,8-6.6,14.6-14.6,14.6l0,0C144.9,468.5,138.3,462,138.3,453.9z"/>
</svg>
