<?xml version="1.0" encoding="utf-8"?>
<!-- Generator: Adobe Illustrator 18.0.0, SVG Export Plug-In . SVG Version: 6.00 Build 0)  -->
<!DOCTYPE svg PUBLIC "-//W3C//DTD SVG 1.1//EN" "http://www.w3.org/Graphics/SVG/1.1/DTD/svg11.dtd">
<svg version="1.1" id="Layer_1" xmlns="http://www.w3.org/2000/svg" xmlns:xlink="http://www.w3.org/1999/xlink" x="0px" y="0px"
	 viewBox="0 0 672.1 634.6" enable-background="new 0 0 672.1 634.6" xml:space="preserve">
<g>
	<path d="M660.7,76.8H557.8V65.2c0-35.9-29.2-65.2-65.2-65.2c-35.9,0-65.1,29.2-65.1,65.2v11.7h-183V65.2
		c0-35.9-29.2-65.2-65.2-65.2c-35.9,0-65.1,29.2-65.1,65.2v11.7H11.4C5.1,76.8,0,81.9,0,88.2v535c0,6.3,5.1,11.4,11.4,11.4h649.3
		c6.3,0,11.4-5.1,11.4-11.4v-535C672.1,81.9,667,76.8,660.7,76.8z M450.4,65.2c0-23.3,19-42.3,42.3-42.3c23.3,0,42.3,19,42.3,42.3
		v45.7c0,23.3-19,42.3-42.3,42.3c-23.3,0-42.3-19-42.3-42.3V65.2z M137.1,65.2c0-23.3,19-42.3,42.3-42.3c23.3,0,42.3,19,42.3,42.3
		v45.7c0,23.3-19,42.3-42.3,42.3c-23.3,0-42.3-19-42.3-42.3V65.2z M649.3,611.8H22.8V265.2h626.5V611.8z M649.3,242.4H22.8V99.6
		h91.5v11.2c0,35.9,29.2,65.2,65.1,65.2c35.9,0,65.2-29.2,65.2-65.2V99.6h183v11.2c0,35.9,29.2,65.2,65.1,65.2
		c35.9,0,65.2-29.2,65.2-65.2V99.6h91.5V242.4z"/>
	<path d="M73.7,370.3h519.8c8.1,0,14.6-6.5,14.6-14.6s-6.5-14.6-14.6-14.6H73.7c-8.1,0-14.6,6.5-14.6,14.6S65.6,370.3,73.7,370.3z"
		/>
	<path d="M73.7,449h519.8c8.1,0,14.6-6.5,14.6-14.6s-6.5-14.6-14.6-14.6H73.7c-8.1,0-14.6,6.5-14.6,14.6S65.6,449,73.7,449z"/>
	<path d="M73.7,527.7h519.8c8.1,0,14.6-6.5,14.6-14.6c0-8.1-6.5-14.6-14.6-14.6H73.7c-8.1,0-14.6,6.5-14.6,14.6
		C59.1,521.2,65.6,527.7,73.7,527.7z"/>
</g>
</svg>
