<?xml version="1.0" encoding="utf-8"?>
<!-- Generator: Adobe Illustrator 25.2.1, SVG Export Plug-In . SVG Version: 6.00 Build 0)  -->
<svg version="1.1" id="Layer_1" xmlns="http://www.w3.org/2000/svg" xmlns:xlink="http://www.w3.org/1999/xlink" x="0px" y="0px"
	 viewBox="0 0 46.6 55.5" style="enable-background:new 0 0 46.6 55.5;" xml:space="preserve">
<style type="text/css">
	.st0{fill:#FFFFFF;}
</style>
<g id="Layer_2_1_">
	<g id="Layer_1-2">
		<path class="st0" d="M1.5,54h3.8V43.7H5.1c-0.6,0-1-0.4-1-1c0,0,0-0.1,0-0.1V18.7c0-2.9,1.2-4.8,3.8-5.8L16,9.5
			c0.6-0.2,1.3-0.1,1.8,0.3c0.4,0.3,0.5,0.4,0.9,0.3l5.4-1.8c1-0.4,1.4-0.3,1.9,0s0.2,0.1,0.6-0.1l3.5-1.1c1.7-0.6,1.8-2.6,1.4-3.9
			s-0.8-2.1-2.4-1.6s-3.5,1.3-5,1.9c-1.7,0.8-3.4,1.4-5.1,2c-0.6,0.3-1.2,0.7-1.6,1.2c-0.5,0.7-1.2,1.3-2,1.6l-8,3.4
			c-3.1,1.2-4.6,3.6-4.6,7v23.9c0,0.6-0.5,1.1-1.1,1.1H1.5V54z M5.6,55.5H1.2C0.5,55.4,0,54.9,0,54.2V43.4c0-0.7,0.5-1.2,1.2-1.2
			c0,0,0,0,0,0h0.1V18.7c-0.2-3.7,2-7.1,5.5-8.4L14.9,7c0.6-0.3,1-0.7,1.4-1.2c0.5-0.8,1.3-1.4,2.2-1.7l0,0l5-2
			c1.6-0.6,3.2-1.3,5.1-1.9s3.6,0.4,4.3,2.5s0.1,5-2.3,5.8l-3.5,1.2c-1,0.3-1.5,0.2-1.9-0.1c-0.2-0.1-0.4,0-0.6,0.1l-5.4,1.8
			c-0.8,0.2-1.6,0.1-2.2-0.4l-0.4-0.2l-8.2,3.3c-1.8,0.7-3,2.5-2.8,4.5v23.5c0.7,0,1.2,0.5,1.2,1.2l0,0v10.8
			c0.1,0.7-0.4,1.2-1.1,1.3C5.7,55.5,5.6,55.5,5.6,55.5"/>
		<path class="st0" d="M20.7,41.2h-0.1c-0.5-0.1-0.9-0.5-0.8-1c0,0,0,0,0,0l2.6-23.9c0.1-0.5,0.5-0.9,1-0.8c0,0,0,0,0,0
			c0.5,0.1,0.9,0.5,0.8,1c0,0,0,0,0,0l-2.6,23.9C21.5,40.9,21.2,41.2,20.7,41.2"/>
		<path class="st0" d="M34.9,40c-0.4,0-0.7-0.2-0.8-0.6l-7.7-22.8c-0.2-0.5,0.1-1,0.5-1.2c0.5-0.1,1,0.1,1.2,0.6l7.7,22.8
			c0.2,0.5,0,1-0.5,1.2c0,0-0.1,0-0.1,0H34.9"/>
		<path class="st0" d="M45.7,35.5c-0.3,0-0.5-0.2-0.7-0.4L30.6,14.5c-0.3-0.3-0.2-0.8,0.1-1.1c0,0,0.1-0.1,0.1-0.1
			c0.4-0.3,1-0.2,1.3,0.2c0,0,0,0,0,0l14.4,20.6c0.2,0.4,0.1,0.9-0.3,1.2L45.7,35.5"/>
	</g>
</g>
</svg>
