<?xml version="1.0" encoding="utf-8"?>
<!-- Generator: Adobe Illustrator 18.0.0, SVG Export Plug-In . SVG Version: 6.00 Build 0)  -->
<!DOCTYPE svg PUBLIC "-//W3C//DTD SVG 1.1//EN" "http://www.w3.org/Graphics/SVG/1.1/DTD/svg11.dtd">
<svg version="1.1" id="Layer_1" xmlns="http://www.w3.org/2000/svg" xmlns:xlink="http://www.w3.org/1999/xlink" x="0px" y="0px"
	 viewBox="-104.2 4 60 60" enable-background="new -104.2 4 60 60" xml:space="preserve">
<path fill="#231F20" d="M-46.4,16.3c-3.7,1.3-4.2,1.1-2.4-0.8c1.3-1.4,2.9-3.9,2.9-4.7c0-0.1-0.6,0.1-1.4,0.5
	c-0.8,0.4-2.5,1.1-3.8,1.5l-2.3,0.7l-2.1-1.4c-1.2-0.8-2.8-1.7-3.7-1.9c-2.2-0.6-5.6-0.5-7.5,0.2c-5.4,2-8.8,7-8.4,12.5l0.1,2.1
	l-2.2-0.3c-7.8-1-14.7-4.4-20.5-10.1l-2.8-2.8l-0.7,2.1c-1.5,4.7-0.6,9.6,2.7,12.9c1.7,1.8,1.3,2.1-1.6,1c-1-0.3-1.9-0.6-2-0.5
	c-0.3,0.3,0.7,4.3,1.5,5.8c1.1,2.2,3.4,4.3,5.9,5.6l2.1,1l-2.5,0c-2.4,0-2.5,0-2.2,1c0.9,2.8,4.3,5.8,8,7.1l2.7,0.9l-2.3,1.4
	c-3.4,2-7.5,3.1-11.5,3.2c-1.9,0-3.5,0.2-3.5,0.3c0,0.4,5.3,2.9,8.3,3.8c9.2,2.8,20.1,1.6,28.2-3.2c5.8-3.4,11.6-10.3,14.3-16.9
	c1.5-3.5,2.9-10,2.9-13c0-2,0.1-2.3,2.5-4.7c1.4-1.4,2.8-2.9,3-3.3C-44.2,15.5-44.2,15.5-46.4,16.3z"/>
</svg>
