<?xml version="1.0" encoding="utf-8"?>
<!-- Generator: Adobe Illustrator 18.0.0, SVG Export Plug-In . SVG Version: 6.00 Build 0)  -->
<!DOCTYPE svg PUBLIC "-//W3C//DTD SVG 1.1//EN" "http://www.w3.org/Graphics/SVG/1.1/DTD/svg11.dtd">
<svg version="1.1" id="Layer_1" xmlns="http://www.w3.org/2000/svg" xmlns:xlink="http://www.w3.org/1999/xlink" x="0px" y="0px"
	 viewBox="0 0 468.6 689.8" enable-background="new 0 0 468.6 689.8" xml:space="preserve">
<g>
	<path d="M245.8,6.6C243.4,2.5,239,0,234.3,0h0c-4.7,0-9.1,2.5-11.5,6.6c-27.1,47-150.4,260.6-189.2,328
		c-44,76.4-44.8,165.8-2.3,239.4c41.9,72.5,117.8,115.8,203,115.8c85.1,0,161-43.3,202.9-115.7C479.8,500.6,479,411,435,334.7
		C435,334.7,292,86.2,245.8,6.6z M414.3,560.8C377.2,625,309.9,663.3,234.3,663.3c-75.6,0-142.9-38.3-180-102.5
		C16.5,495.5,17.4,416,56.6,347.9C95.4,280.5,211.1,80.1,234.4,39.8C277.1,113.4,412,347.9,412,347.9
		C451.2,416,452,495.6,414.3,560.8z"/>
</g>
</svg>
