<?xml version="1.0" encoding="utf-8"?>
<!-- Generator: Adobe Illustrator 25.2.1, SVG Export Plug-In . SVG Version: 6.00 Build 0)  -->
<svg version="1.1" id="Layer_1" xmlns="http://www.w3.org/2000/svg" xmlns:xlink="http://www.w3.org/1999/xlink" x="0px" y="0px"
	 viewBox="0 0 57.1 41.4" style="enable-background:new 0 0 57.1 41.4;" xml:space="preserve">
<style type="text/css">
	.st0{fill:#FFFFFF;}
</style>
<g id="Layer_2_1_">
	<g id="Layer_1-2">
		<path class="st0" d="M37.6,39.6H19.5c-3.4,0-6.2-2.8-6.2-6.2l0,0V26c0-3.4,2.8-6.2,6.2-6.3h18.1c3.5,0,6.3,2.8,6.3,6.3v0v7.4
			C43.8,36.8,41,39.6,37.6,39.6 M31.1,18H26V8.5h5.1V18z M17.6,6.7c-1.4,0.3-2.7-0.6-2.9-2s0.6-2.7,2-2.9c0.3-0.1,0.7-0.1,1,0h21.9
			c1.4-0.3,2.7,0.6,2.9,2s-0.6,2.7-2,2.9c-0.3,0.1-0.7,0.1-1,0H17.6z M57.1,23.1h-12C43.9,20,40.9,18,37.6,18h-4.7V8.5h6.6
			c2.3,0.4,4.5-1.2,4.9-3.6S43.2,0.4,40.8,0c-0.4-0.1-0.9-0.1-1.3,0H17.6c-2.3-0.4-4.5,1.2-4.9,3.6s1.2,4.5,3.6,4.9
			c0.4,0.1,0.9,0.1,1.3,0h6.7V18h-4.8c-3.3,0-6.3,2-7.5,5.1H0v1.8h11.6c-0.1,0.4-0.1,0.7-0.1,1.1v7.4c0,0.4,0,0.7,0.1,1.1H0v1.8h12
			c1.2,3.1,4.2,5.1,7.5,5.1h18.1c3.3,0,6.3-2,7.5-5.1h12v-1.8H45.5c0.1-0.4,0.1-0.7,0.1-1.1V26c0-0.4,0-0.7-0.1-1.1h11.6V23.1z"/>
	</g>
</g>
</svg>
